%YAML 1.1
%TAG !u! tag:unity3d.com,2011:
--- !u!74 &7400000
AnimationClip:
  m_ObjectHideFlags: 0
  m_PrefabParentObject: {fileID: 0}
  m_PrefabInternal: {fileID: 0}
  m_Name: FaMozog
  serializedVersion: 6
  m_Legacy: 0
  m_Compressed: 0
  m_UseHighQualityCurve: 1
  m_RotationCurves: []
  m_CompressedRotationCurves: []
  m_EulerCurves: []
  m_PositionCurves:
  - curve:
      serializedVersion: 2
      m_Curve:
      - time: 0
        value: {x: 0.474, y: 0.375, z: 0.1}
        inSlope: {x: 0, y: 0, z: -0.139}
        outSlope: {x: 0, y: 0, z: -0.139}
        tangentMode: 0
      - time: 1
        value: {x: 0.474, y: 0.375, z: -0.039}
        inSlope: {x: 0, y: 0, z: -0.139}
        outSlope: {x: 0, y: 0, z: -0.139}
        tangentMode: 0
      m_PreInfinity: 2
      m_PostInfinity: 2
      m_RotationOrder: 4
    path: Lomb/level
  - curve:
      serializedVersion: 2
      m_Curve:
      - time: 0
        value: {x: -0.26, y: 0.39499998, z: 0.273}
        inSlope: {x: -0.073000014, y: 0, z: -0.163}
        outSlope: {x: -0.073000014, y: 0, z: -0.163}
        tangentMode: 0
      - time: 1
        value: {x: -0.333, y: 0.39499998, z: 0.11}
        inSlope: {x: -0.073000014, y: 0, z: -0.163}
        outSlope: {x: -0.073000014, y: 0, z: -0.163}
        tangentMode: 0
      m_PreInfinity: 2
      m_PostInfinity: 2
      m_RotationOrder: 4
    path: Lomb/level4
  - curve:
      serializedVersion: 2
      m_Curve:
      - time: 0
        value: {x: -0.31500006, y: 0.10000014, z: -0.327}
        inSlope: {x: -0.058999956, y: 0, z: -0.20500001}
        outSlope: {x: -0.058999956, y: 0, z: -0.20500001}
        tangentMode: 0
      - time: 1
        value: {x: -0.374, y: 0.10000014, z: -0.532}
        inSlope: {x: -0.058999956, y: 0, z: -0.20500001}
        outSlope: {x: -0.058999956, y: 0, z: -0.20500001}
        tangentMode: 0
      m_PreInfinity: 2
      m_PostInfinity: 2
      m_RotationOrder: 4
    path: Lomb/level3
  - curve:
      serializedVersion: 2
      m_Curve:
      - time: 0
        value: {x: -0.38999987, y: -0.25, z: 0.263}
        inSlope: {x: -0.069000125, y: 0, z: -0.23400001}
        outSlope: {x: -0.069000125, y: 0, z: -0.23400001}
        tangentMode: 0
      - time: 1
        value: {x: -0.459, y: -0.25, z: 0.029}
        inSlope: {x: -0.069000125, y: 0, z: -0.23400001}
        outSlope: {x: -0.069000125, y: 0, z: -0.23400001}
        tangentMode: 0
      m_PreInfinity: 2
      m_PostInfinity: 2
      m_RotationOrder: 4
    path: Lomb/level5
  - curve:
      serializedVersion: 2
      m_Curve:
      - time: 0
        value: {x: 0.4718275, y: -0.18499994, z: -0.347}
        inSlope: {x: -0.1298275, y: 0, z: -0.16399997}
        outSlope: {x: -0.1298275, y: 0, z: -0.16399997}
        tangentMode: 0
      - time: 1
        value: {x: 0.342, y: -0.18499994, z: -0.511}
        inSlope: {x: -0.1298275, y: 0, z: -0.16399997}
        outSlope: {x: -0.1298275, y: 0, z: -0.16399997}
        tangentMode: 0
      m_PreInfinity: 2
      m_PostInfinity: 2
      m_RotationOrder: 4
    path: Lomb/level2
  m_ScaleCurves: []
  m_FloatCurves: []
  m_PPtrCurves: []
  m_SampleRate: 60
  m_WrapMode: 0
  m_Bounds:
    m_Center: {x: 0, y: 0, z: 0}
    m_Extent: {x: 0, y: 0, z: 0}
  m_ClipBindingConstant:
    genericBindings:
    - path: 421766502
      attribute: 1
      script: {fileID: 0}
      classID: 4
      customType: 0
      isPPtrCurve: 0
    - path: 1467940080
      attribute: 1
      script: {fileID: 0}
      classID: 4
      customType: 0
      isPPtrCurve: 0
    - path: 3373951315
      attribute: 1
      script: {fileID: 0}
      classID: 4
      customType: 0
      isPPtrCurve: 0
    - path: 544853094
      attribute: 1
      script: {fileID: 0}
      classID: 4
      customType: 0
      isPPtrCurve: 0
    - path: 3189594565
      attribute: 1
      script: {fileID: 0}
      classID: 4
      customType: 0
      isPPtrCurve: 0
    pptrCurveMapping: []
  m_AnimationClipSettings:
    serializedVersion: 2
    m_AdditiveReferencePoseClip: {fileID: 0}
    m_AdditiveReferencePoseTime: 0
    m_StartTime: 0
    m_StopTime: 1
    m_OrientationOffsetY: 0
    m_Level: 0
    m_CycleOffset: 0
    m_HasAdditiveReferencePose: 0
    m_LoopTime: 1
    m_LoopBlend: 0
    m_LoopBlendOrientation: 0
    m_LoopBlendPositionY: 0
    m_LoopBlendPositionXZ: 0
    m_KeepOriginalOrientation: 0
    m_KeepOriginalPositionY: 1
    m_KeepOriginalPositionXZ: 0
    m_HeightFromFeet: 0
    m_Mirror: 0
  m_EditorCurves:
  - curve:
      serializedVersion: 2
      m_Curve:
      - time: 0
        value: 0.474
        inSlope: 0
        outSlope: 0
        tangentMode: 10
      - time: 1
        value: 0.474
        inSlope: 0
        outSlope: 0
        tangentMode: 10
      m_PreInfinity: 2
      m_PostInfinity: 2
      m_RotationOrder: 4
    attribute: m_LocalPosition.x
    path: Lomb/level
    classID: 4
    script: {fileID: 0}
  - curve:
      serializedVersion: 2
      m_Curve:
      - time: 0
        value: 0.375
        inSlope: 0
        outSlope: 0
        tangentMode: 10
      - time: 1
        value: 0.375
        inSlope: 0
        outSlope: 0
        tangentMode: 10
      m_PreInfinity: 2
      m_PostInfinity: 2
      m_RotationOrder: 4
    attribute: m_LocalPosition.y
    path: Lomb/level
    classID: 4
    script: {fileID: 0}
  - curve:
      serializedVersion: 2
      m_Curve:
      - time: 0
        value: 0.1
        inSlope: -0.139
        outSlope: -0.139
        tangentMode: 10
      - time: 1
        value: -0.039
        inSlope: -0.139
        outSlope: -0.139
        tangentMode: 10
      m_PreInfinity: 2
      m_PostInfinity: 2
      m_RotationOrder: 4
    attribute: m_LocalPosition.z
    path: Lomb/level
    classID: 4
    script: {fileID: 0}
  - curve:
      serializedVersion: 2
      m_Curve:
      - time: 0
        value: -0.26
        inSlope: -0.073000014
        outSlope: -0.073000014
        tangentMode: 10
      - time: 1
        value: -0.333
        inSlope: -0.073000014
        outSlope: -0.073000014
        tangentMode: 10
      m_PreInfinity: 2
      m_PostInfinity: 2
      m_RotationOrder: 4
    attribute: m_LocalPosition.x
    path: Lomb/level4
    classID: 4
    script: {fileID: 0}
  - curve:
      serializedVersion: 2
      m_Curve:
      - time: 0
        value: 0.39499998
        inSlope: 0
        outSlope: 0
        tangentMode: 10
      - time: 1
        value: 0.39499998
        inSlope: 0
        outSlope: 0
        tangentMode: 10
      m_PreInfinity: 2
      m_PostInfinity: 2
      m_RotationOrder: 4
    attribute: m_LocalPosition.y
    path: Lomb/level4
    classID: 4
    script: {fileID: 0}
  - curve:
      serializedVersion: 2
      m_Curve:
      - time: 0
        value: 0.273
        inSlope: -0.163
        outSlope: -0.163
        tangentMode: 10
      - time: 1
        value: 0.11
        inSlope: -0.163
        outSlope: -0.163
        tangentMode: 10
      m_PreInfinity: 2
      m_PostInfinity: 2
      m_RotationOrder: 4
    attribute: m_LocalPosition.z
    path: Lomb/level4
    classID: 4
    script: {fileID: 0}
  - curve:
      serializedVersion: 2
      m_Curve:
      - time: 0
        value: -0.31500006
        inSlope: -0.058999956
        outSlope: -0.058999956
        tangentMode: 10
      - time: 1
        value: -0.374
        inSlope: -0.058999956
        outSlope: -0.058999956
        tangentMode: 10
      m_PreInfinity: 2
      m_PostInfinity: 2
      m_RotationOrder: 4
    attribute: m_LocalPosition.x
    path: Lomb/level3
    classID: 4
    script: {fileID: 0}
  - curve:
      serializedVersion: 2
      m_Curve:
      - time: 0
        value: 0.10000014
        inSlope: 0
        outSlope: 0
        tangentMode: 10
      - time: 1
        value: 0.10000014
        inSlope: 0
        outSlope: 0
        tangentMode: 10
      m_PreInfinity: 2
      m_PostInfinity: 2
      m_RotationOrder: 4
    attribute: m_LocalPosition.y
    path: Lomb/level3
    classID: 4
    script: {fileID: 0}
  - curve:
      serializedVersion: 2
      m_Curve:
      - time: 0
        value: -0.327
        inSlope: -0.20500001
        outSlope: -0.20500001
        tangentMode: 10
      - time: 1
        value: -0.532
        inSlope: -0.20500001
        outSlope: -0.20500001
        tangentMode: 10
      m_PreInfinity: 2
      m_PostInfinity: 2
      m_RotationOrder: 4
    attribute: m_LocalPosition.z
    path: Lomb/level3
    classID: 4
    script: {fileID: 0}
  - curve:
      serializedVersion: 2
      m_Curve:
      - time: 0
        value: -0.38999987
        inSlope: -0.069000125
        outSlope: -0.069000125
        tangentMode: 10
      - time: 1
        value: -0.459
        inSlope: -0.069000125
        outSlope: -0.069000125
        tangentMode: 10
      m_PreInfinity: 2
      m_PostInfinity: 2
      m_RotationOrder: 4
    attribute: m_LocalPosition.x
    path: Lomb/level5
    classID: 4
    script: {fileID: 0}
  - curve:
      serializedVersion: 2
      m_Curve:
      - time: 0
        value: -0.25
        inSlope: 0
        outSlope: 0
        tangentMode: 10
      - time: 1
        value: -0.25
        inSlope: 0
        outSlope: 0
        tangentMode: 10
      m_PreInfinity: 2
      m_PostInfinity: 2
      m_RotationOrder: 4
    attribute: m_LocalPosition.y
    path: Lomb/level5
    classID: 4
    script: {fileID: 0}
  - curve:
      serializedVersion: 2
      m_Curve:
      - time: 0
        value: 0.263
        inSlope: -0.23400001
        outSlope: -0.23400001
        tangentMode: 10
      - time: 1
        value: 0.029
        inSlope: -0.23400001
        outSlope: -0.23400001
        tangentMode: 10
      m_PreInfinity: 2
      m_PostInfinity: 2
      m_RotationOrder: 4
    attribute: m_LocalPosition.z
    path: Lomb/level5
    classID: 4
    script: {fileID: 0}
  - curve:
      serializedVersion: 2
      m_Curve:
      - time: 0
        value: 0.4718275
        inSlope: -0.1298275
        outSlope: -0.1298275
        tangentMode: 10
      - time: 1
        value: 0.342
        inSlope: -0.1298275
        outSlope: -0.1298275
        tangentMode: 10
      m_PreInfinity: 2
      m_PostInfinity: 2
      m_RotationOrder: 4
    attribute: m_LocalPosition.x
    path: Lomb/level2
    classID: 4
    script: {fileID: 0}
  - curve:
      serializedVersion: 2
      m_Curve:
      - time: 0
        value: -0.18499994
        inSlope: 0
        outSlope: 0
        tangentMode: 10
      - time: 1
        value: -0.18499994
        inSlope: 0
        outSlope: 0
        tangentMode: 10
      m_PreInfinity: 2
      m_PostInfinity: 2
      m_RotationOrder: 4
    attribute: m_LocalPosition.y
    path: Lomb/level2
    classID: 4
    script: {fileID: 0}
  - curve:
      serializedVersion: 2
      m_Curve:
      - time: 0
        value: -0.347
        inSlope: -0.16399997
        outSlope: -0.16399997
        tangentMode: 10
      - time: 1
        value: -0.511
        inSlope: -0.16399997
        outSlope: -0.16399997
        tangentMode: 10
      m_PreInfinity: 2
      m_PostInfinity: 2
      m_RotationOrder: 4
    attribute: m_LocalPosition.z
    path: Lomb/level2
    classID: 4
    script: {fileID: 0}
  m_EulerEditorCurves: []
  m_HasGenericRootTransform: 0
  m_HasMotionFloatCurves: 0
  m_GenerateMotionCurves: 0
  m_Events: []
